{
  "display_name": ["Alfred", "Vergaard"],
  "email": "test.email@uio.no",
  "fs_person_id": "1",
  "username": "veralf2",
  "affiliations":  [],
  "org_import_id": "1",
  "sap_person_id": "00101219"
}
